<svg width="60" height="60" viewBox="0 0 60 60" fill="none" xmlns="http://www.w3.org/2000/svg">
<path d="M21.4453 30.9297L27.9297 37.8047C28.0469 37.9609 28.2422 38 28.3984 38C28.5547 38 28.7109 37.9609 28.8281 37.8438C29.1016 37.6094 29.1016 37.2188 28.8672 36.9844L23.3984 31.125H38.125C38.4766 31.125 38.75 30.8516 38.75 30.5391C38.75 30.2266 38.4766 29.875 38.125 29.875H23.3984L28.8672 24.0547C29.1016 23.8203 29.1016 23.4297 28.8281 23.1953C28.5547 22.9609 28.1641 22.9609 27.9297 23.2344L21.4453 30.1094C21.2109 30.3438 21.2109 30.6953 21.4453 30.9297Z" fill="#232A7B"/>
<circle r="29.5" transform="matrix(-1 0 0 1 30 30)" stroke="#232A7B"/>
</svg>
