<svg width="20" height="20" viewBox="0 0 20 20" fill="none" xmlns="http://www.w3.org/2000/svg">
<g clip-path="url(#clip0_5184_77768)">
<path d="M19.3745 9.37533H11.458C11.113 9.37533 10.833 9.09534 10.833 8.75035C10.833 8.40536 11.113 8.12537 11.458 8.12537H19.3745C19.7194 8.12537 19.9994 8.40536 19.9994 8.75035C19.9994 9.09534 19.7194 9.37533 19.3745 9.37533Z" fill="#572885"/>
<path d="M16.2496 12.5003C16.0895 12.5003 15.9296 12.4394 15.8079 12.317C15.5637 12.0727 15.5637 11.6769 15.8079 11.4328L18.4912 8.74963L15.8079 6.0663C15.5637 5.82217 15.5637 5.42637 15.8079 5.18224C16.0521 4.93795 16.4479 4.93795 16.6921 5.18224L19.817 8.30714C20.0611 8.55127 20.0611 8.94707 19.817 9.19121L16.6921 12.3161C16.5696 12.4394 16.4096 12.5003 16.2496 12.5003Z" fill="#572885"/>
<path d="M6.66651 20.0001C6.48814 20.0001 6.31892 19.9751 6.14986 19.9226L1.13491 18.2518C0.452562 18.0135 0 17.3777 0 16.6669V1.6674C0 0.748237 0.747505 0.000732422 1.66667 0.000732422C1.84488 0.000732422 2.0141 0.0257561 2.18331 0.0782447L7.19811 1.74903C7.88061 1.98736 8.33302 2.62318 8.33302 3.33391V18.3334C8.33302 19.2526 7.58567 20.0001 6.66651 20.0001ZM1.66667 1.25069C1.43749 1.25069 1.24996 1.43822 1.24996 1.6674V16.6669C1.24996 16.8444 1.36913 17.0093 1.53911 17.0685L6.53056 18.7318C6.56641 18.7434 6.6131 18.7501 6.66651 18.7501C6.89569 18.7501 7.08306 18.5626 7.08306 18.3334V3.33391C7.08306 3.15646 6.96389 2.99151 6.79392 2.93231L1.80246 1.269C1.76661 1.25741 1.71992 1.25069 1.66667 1.25069Z" fill="#572885"/>
<path d="M12.7079 6.66712C12.363 6.66712 12.083 6.38713 12.083 6.04214V2.29226C12.083 1.71809 11.6156 1.25057 11.0414 1.25057H1.66673C1.32174 1.25057 1.04175 0.970581 1.04175 0.625591C1.04175 0.2806 1.32174 0.000610352 1.66673 0.000610352H11.0414C12.3056 0.000610352 13.3329 1.02811 13.3329 2.29226V6.04214C13.3329 6.38713 13.0529 6.66712 12.7079 6.66712Z" fill="#572885"/>
<path d="M11.0413 17.5001H7.70799C7.363 17.5001 7.08301 17.2201 7.08301 16.8751C7.08301 16.5302 7.363 16.2502 7.70799 16.2502H11.0413C11.6155 16.2502 12.0829 15.7827 12.0829 15.2085V11.4586C12.0829 11.1136 12.3628 10.8336 12.7078 10.8336C13.0528 10.8336 13.3328 11.1136 13.3328 11.4586V15.2085C13.3328 16.4726 12.3055 17.5001 11.0413 17.5001Z" fill="#572885"/>
</g>
<defs>
<clipPath id="clip0_5184_77768">
<rect width="20" height="20" fill="white"/>
</clipPath>
</defs>
</svg>
